﻿ 2017-06-15 12:12:56,803 [P7224/D2/T1] INFO  Umbraco.Core.CoreBootManager - Umbraco 7.5.11 application starting on GBRLT050007
 2017-06-15 12:12:56,825 [P7224/D2/T1] INFO  Umbraco.Core.PluginManager - Determining hash of code files on disk
 2017-06-15 12:12:56,836 [P7224/D2/T1] INFO  Umbraco.Core.PluginManager - Hash determined (took 10ms)
 2017-06-15 12:12:56,896 [P7224/D2/T1] INFO  Umbraco.Core.MainDom - Acquiring MainDom...
 2017-06-15 12:12:56,898 [P7224/D2/T1] INFO  Umbraco.Core.MainDom - Acquired MainDom.
 2017-06-15 12:12:56,905 [P7224/D2/T1] INFO  Umbraco.Core.PluginManager - Starting resolution types of umbraco.interfaces.IApplicationStartupHandler
 2017-06-15 12:12:57,244 [P7224/D2/T1] INFO  Umbraco.Core.PluginManager - Completed resolution of types of umbraco.interfaces.IApplicationStartupHandler, found 0 (took 338ms)
 2017-06-15 12:12:57,262 [P7224/D2/T1] INFO  Umbraco.Core.PluginManager - Starting resolution types of Umbraco.Core.PropertyEditors.IPropertyEditorValueConverter
 2017-06-15 12:12:57,267 [P7224/D2/T1] INFO  Umbraco.Core.PluginManager - Completed resolution of types of Umbraco.Core.PropertyEditors.IPropertyEditorValueConverter, found 0 (took 5ms)
 2017-06-15 12:12:57,268 [P7224/D2/T1] INFO  Umbraco.Core.PluginManager - Starting resolution types of Umbraco.Core.PropertyEditors.IPropertyValueConverter
 2017-06-15 12:12:57,275 [P7224/D2/T1] INFO  Umbraco.Core.PluginManager - Completed resolution of types of Umbraco.Core.PropertyEditors.IPropertyValueConverter, found 0 (took 6ms)
 2017-06-15 12:12:57,292 [P7224/D2/T1] INFO  Umbraco.Core.PluginManager - Starting resolution types of Umbraco.Web.Mvc.SurfaceController
 2017-06-15 12:12:57,297 [P7224/D2/T1] INFO  Umbraco.Core.PluginManager - Completed resolution of types of Umbraco.Web.Mvc.SurfaceController, found 0 (took 5ms)
 2017-06-15 12:12:57,298 [P7224/D2/T1] INFO  Umbraco.Core.PluginManager - Starting resolution types of Umbraco.Web.WebApi.UmbracoApiController
 2017-06-15 12:12:57,304 [P7224/D2/T1] INFO  Umbraco.Core.PluginManager - Completed resolution of types of Umbraco.Web.WebApi.UmbracoApiController, found 0 (took 5ms)
 2017-06-15 12:12:57,347 [P7224/D2/T1] INFO  Umbraco.Core.PluginManager - Starting resolution types of Umbraco.Core.Media.IThumbnailProvider
 2017-06-15 12:12:57,352 [P7224/D2/T1] INFO  Umbraco.Core.PluginManager - Completed resolution of types of Umbraco.Core.Media.IThumbnailProvider, found 0 (took 5ms)
 2017-06-15 12:12:57,353 [P7224/D2/T1] INFO  Umbraco.Core.PluginManager - Starting resolution types of Umbraco.Core.Media.IImageUrlProvider
 2017-06-15 12:12:57,359 [P7224/D2/T1] INFO  Umbraco.Core.PluginManager - Completed resolution of types of Umbraco.Core.Media.IImageUrlProvider, found 0 (took 5ms)
 2017-06-15 12:12:58,529 [P7224/D2/T1] INFO  Umbraco.Core.DatabaseContext - CanConnect = True
 2017-06-15 12:12:58,770 [P7224/D2/T1] INFO  Umbraco.Web.Cache.CacheRefresherEventHandler - Initializing Umbraco internal event handlers for cache refreshing
 2017-06-15 12:12:58,796 [P7224/D2/T1] INFO  Umbraco.Web.Search.ExamineEvents - Initializing Examine and binding to business logic events
 2017-06-15 12:12:58,865 [P7224/D2/T1] INFO  Umbraco.Web.Search.ExamineEvents - Adding examine event handlers for index providers: 3
 2017-06-15 12:12:58,891 [P7224/D2/T1] INFO  Umbraco.Core.CoreBootManager - Umbraco application startup complete (took 2171ms)
 2017-06-15 12:12:59,059 [P7224/D2/T9] INFO  Umbraco.Core.Sync.ApplicationUrlHelper - ApplicationUrl: http://localhost:23300/umbraco (UmbracoModule request)
 2017-06-15 12:12:59,249 [P7224/D2/T9] INFO  umbraco.content - Load Xml from file...
 2017-06-15 12:12:59,253 [P7224/D2/T9] INFO  umbraco.content - Loaded Xml from file.
 2017-06-15 12:12:59,821 [P7224/D2/T9] INFO  Umbraco.Core.PluginManager - Starting resolution types of Umbraco.Core.PropertyEditors.IParameterEditor
 2017-06-15 12:12:59,834 [P7224/D2/T9] INFO  Umbraco.Core.PluginManager - Completed resolution of types of Umbraco.Core.PropertyEditors.IParameterEditor, found 0 (took 13ms)
 2017-06-15 12:13:04,471 [P7224/D2/T9] INFO  Umbraco.Core.PluginManager - Starting resolution types of Umbraco.Core.Persistence.Mappers.BaseMapper
 2017-06-15 12:13:04,480 [P7224/D2/T9] INFO  Umbraco.Core.PluginManager - Completed resolution of types of Umbraco.Core.Persistence.Mappers.BaseMapper, found 0 (took 8ms)
 2017-06-15 12:13:04,639 [P7224/D2/T9] INFO  Umbraco.Core.PluginManager - Starting resolution types of umbraco.cms.businesslogic.macro.IMacroEngine
 2017-06-15 12:13:04,647 [P7224/D2/T9] INFO  Umbraco.Core.PluginManager - Completed resolution of types of umbraco.cms.businesslogic.macro.IMacroEngine, found 0 (took 7ms)
 2017-06-15 12:13:45,289 [P7224/D2/T17] INFO  Umbraco.Core.Security.BackOfficeSignInManager - Event Id: 0, state: Login attempt succeeded for username harinder.dulai@aicpa-cima.com from IP address ::1
 2017-06-15 12:13:45,292 [P7224/D2/T17] INFO  Umbraco.Core.Security.BackOfficeSignInManager - Event Id: 0, state: User: harinder.dulai@aicpa-cima.com logged in from IP address ::1
 2017-06-15 12:13:45,444 [P7224/D2/T7] INFO  Umbraco.Core.PluginManager - Starting resolution types of Umbraco.Web.Trees.TreeController
 2017-06-15 12:13:45,451 [P7224/D2/T7] INFO  Umbraco.Core.PluginManager - Completed resolution of types of Umbraco.Web.Trees.TreeController, found 0 (took 7ms)
 2017-06-15 12:13:45,944 [P7224/D2/T7] INFO  Umbraco.Core.PluginManager - Starting resolution types of umbraco.interfaces.IApplication
 2017-06-15 12:13:45,990 [P7224/D2/T7] INFO  Umbraco.Core.PluginManager - Completed resolution of types of umbraco.interfaces.IApplication, found 0 (took 44ms)
 2017-06-15 12:13:46,276 [P7224/D2/T7] INFO  Umbraco.Core.PluginManager - Starting resolution types of Umbraco.Web.Trees.TreeController
 2017-06-15 12:13:46,277 [P7224/D2/T7] INFO  Umbraco.Core.PluginManager - Completed resolution of types of Umbraco.Web.Trees.TreeController, found 0 (took 0ms)
 2017-06-15 12:13:46,282 [P7224/D2/T7] INFO  Umbraco.Core.PluginManager - Starting resolution types of umbraco.interfaces.ITree
 2017-06-15 12:13:46,313 [P7224/D2/T7] INFO  Umbraco.Core.PluginManager - Completed resolution of types of umbraco.interfaces.ITree, found 0 (took 31ms)
 2017-06-15 12:13:46,321 [P7224/D2/T17] INFO  Umbraco.Core.PluginManager - Starting resolution types of umbraco.interfaces.ITree
 2017-06-15 12:13:46,389 [P7224/D2/T17] INFO  Umbraco.Core.PluginManager - Completed resolution of types of umbraco.interfaces.ITree, found 0 (took 67ms)
 2017-06-15 12:13:59,299 [P7224/D2/T15] INFO  umbraco.BusinessLogic.Log - Log scrubbed.  Removed all items older than 2017-06-14 12:13:59
 2017-06-15 12:14:28,058 [P7224/D2/T9] INFO  Umbraco.Core.PluginManager - Starting resolution types of umbraco.interfaces.ICacheRefresher
 2017-06-15 12:14:28,100 [P7224/D2/T9] INFO  Umbraco.Core.PluginManager - Completed resolution of types of umbraco.interfaces.ICacheRefresher, found 0 (took 41ms)
 2017-06-15 12:16:41,233 [P7224/D2/T16] INFO  Umbraco.Core.Security.UmbracoMembershipProviderBase - Login attempt failed for username harinder.dulai@aicpa-cima.com from IP address ::1, the user does not exist
 2017-06-15 12:16:41,238 [P7224/D2/T16] INFO  Umbraco.Web.Mvc.UmbracoPageResult - Executing Umbraco RouteDefinition controller
 2017-06-15 12:16:41,253 [P7224/D2/T16] INFO  Umbraco.Web.Mvc.UmbracoPageResult - Finished (took 15ms)
 2017-06-15 12:17:00,493 [P7224/D2/T38] INFO  Umbraco.Core.Security.UmbracoMembershipProviderBase - Login attempt failed for username user from IP address ::1, the user does not exist
 2017-06-15 12:17:00,493 [P7224/D2/T38] INFO  Umbraco.Web.Mvc.UmbracoPageResult - Executing Umbraco RouteDefinition controller
 2017-06-15 12:17:00,496 [P7224/D2/T38] INFO  Umbraco.Web.Mvc.UmbracoPageResult - Finished (took 2ms)
 2017-06-15 12:17:04,207 [P7224/D2/T20] INFO  Umbraco.Core.Security.UmbracoMembershipProviderBase - Login attempt failed for username user from IP address ::1, the user does not exist
 2017-06-15 12:17:04,208 [P7224/D2/T20] INFO  Umbraco.Web.Mvc.UmbracoPageResult - Executing Umbraco RouteDefinition controller
 2017-06-15 12:17:04,210 [P7224/D2/T20] INFO  Umbraco.Web.Mvc.UmbracoPageResult - Finished (took 2ms)
 2017-06-15 12:17:24,559 [P7224/D2/T23] INFO  Umbraco.Core.Security.UmbracoMembershipProviderBase - Login attempt failed for username user from IP address ::1, the user does not exist
 2017-06-15 12:17:24,560 [P7224/D2/T23] INFO  Umbraco.Web.Mvc.UmbracoPageResult - Executing Umbraco RouteDefinition controller
 2017-06-15 12:17:24,562 [P7224/D2/T23] INFO  Umbraco.Web.Mvc.UmbracoPageResult - Finished (took 2ms)
 2017-06-15 12:17:56,910 [P7224/D2/T7] WARN  Umbraco.Web.Models.Mapping.PreValueDisplayResolver - Could not find persisted pre-value for field default
 2017-06-15 12:17:56,910 [P7224/D2/T26] WARN  Umbraco.Web.Models.Mapping.PreValueDisplayResolver - Could not find persisted pre-value for field values
 2017-06-15 12:17:56,957 [P7224/D2/T20] WARN  Umbraco.Web.Models.Mapping.PreValueDisplayResolver - Could not find persisted pre-value for field default
 2017-06-15 12:17:56,959 [P7224/D2/T7] WARN  Umbraco.Web.Models.Mapping.PreValueDisplayResolver - Could not find persisted pre-value for field values
 2017-06-15 12:17:56,968 [P7224/D2/T20] WARN  Umbraco.Web.Models.Mapping.PreValueDisplayResolver - Could not find persisted pre-value for field values
 2017-06-15 12:17:56,973 [P7224/D2/T7] WARN  Umbraco.Web.Models.Mapping.PreValueDisplayResolver - Could not find persisted pre-value for field values
 2017-06-15 12:18:13,216 [P7224/D2/T16] INFO  Umbraco.Core.Security.UmbracoMembershipProviderBase - Login attempt failed for username TestUser from IP address ::1, the user does not exist
 2017-06-15 12:18:13,217 [P7224/D2/T16] INFO  Umbraco.Web.Mvc.UmbracoPageResult - Executing Umbraco RouteDefinition controller
 2017-06-15 12:18:13,219 [P7224/D2/T16] INFO  Umbraco.Web.Mvc.UmbracoPageResult - Finished (took 2ms)
 2017-06-15 12:18:52,838 [P7224/D2/T14] WARN  Umbraco.Core.Models.Member - An attempt was made to set a value on the property 'PasswordQuestion' on type Umbraco.Core.Models.Member but the property type umbracoMemberPasswordRetrievalQuestion does not exist on the member type, ensure that this property type exists so that setting this property works correctly.
 2017-06-15 12:18:52,839 [P7224/D2/T14] WARN  Umbraco.Core.Models.Member - An attempt was made to set a value on the property 'PasswordAnswer' on type Umbraco.Core.Models.Member but the property type umbracoMemberPasswordRetrievalAnswer does not exist on the member type, ensure that this property type exists so that setting this property works correctly.
 2017-06-15 12:18:52,892 [P7224/D2/T14] WARN  Umbraco.Core.Models.Member - Trying to access the 'PasswordQuestion' property on Umbraco.Core.Models.Member but the umbracoMemberPasswordRetrievalQuestion property does not exist on the member type so a default value is returned. Ensure that you have a property type with alias: umbracoMemberPasswordRetrievalQuestion configured on your member type in order to use the 'PasswordQuestion' property on the model correctly.
 2017-06-15 12:18:53,027 [P7224/D2/T14] WARN  Umbraco.Core.Models.Member - Trying to access the 'PasswordQuestion' property on Umbraco.Core.Models.Member but the umbracoMemberPasswordRetrievalQuestion property does not exist on the member type so a default value is returned. Ensure that you have a property type with alias: umbracoMemberPasswordRetrievalQuestion configured on your member type in order to use the 'PasswordQuestion' property on the model correctly.
 2017-06-15 12:19:28,672 [P7224/D2/T38] WARN  Umbraco.Web.Models.Mapping.PreValueDisplayResolver - Could not find persisted pre-value for field values
 2017-06-15 12:19:28,682 [P7224/D2/T31] WARN  Umbraco.Web.Models.Mapping.PreValueDisplayResolver - Could not find persisted pre-value for field default
 2017-06-15 12:19:28,693 [P7224/D2/T5] WARN  Umbraco.Web.Models.Mapping.PreValueDisplayResolver - Could not find persisted pre-value for field values
 2017-06-15 12:19:28,693 [P7224/D2/T38] WARN  Umbraco.Web.Models.Mapping.PreValueDisplayResolver - Could not find persisted pre-value for field values
 2017-06-15 12:19:28,707 [P7224/D2/T22] WARN  Umbraco.Web.Models.Mapping.PreValueDisplayResolver - Could not find persisted pre-value for field values
 2017-06-15 12:19:28,714 [P7224/D2/T22] WARN  Umbraco.Web.Models.Mapping.PreValueDisplayResolver - Could not find persisted pre-value for field default
 2017-06-15 12:20:44,050 [P7224/D2/T23] WARN  Umbraco.Web.Models.Mapping.PreValueDisplayResolver - Could not find persisted pre-value for field values
 2017-06-15 12:20:44,060 [P7224/D2/T23] WARN  Umbraco.Web.Models.Mapping.PreValueDisplayResolver - Could not find persisted pre-value for field values
 2017-06-15 12:20:44,060 [P7224/D2/T20] WARN  Umbraco.Web.Models.Mapping.PreValueDisplayResolver - Could not find persisted pre-value for field values
 2017-06-15 12:20:44,067 [P7224/D2/T22] WARN  Umbraco.Web.Models.Mapping.PreValueDisplayResolver - Could not find persisted pre-value for field default
 2017-06-15 12:20:44,084 [P7224/D2/T20] WARN  Umbraco.Web.Models.Mapping.PreValueDisplayResolver - Could not find persisted pre-value for field values
 2017-06-15 12:20:44,091 [P7224/D2/T28] WARN  Umbraco.Web.Models.Mapping.PreValueDisplayResolver - Could not find persisted pre-value for field default
 2017-06-15 12:21:01,854 [P7224/D2/T38] WARN  Umbraco.Core.Models.Member - Trying to access the 'PasswordQuestion' property on Umbraco.Core.Models.Member but the umbracoMemberPasswordRetrievalQuestion property does not exist on the member type so a default value is returned. Ensure that you have a property type with alias: umbracoMemberPasswordRetrievalQuestion configured on your member type in order to use the 'PasswordQuestion' property on the model correctly.
 2017-06-15 12:21:01,919 [P7224/D2/T38] WARN  Umbraco.Core.Models.Member - Trying to access the 'PasswordQuestion' property on Umbraco.Core.Models.Member but the umbracoMemberPasswordRetrievalQuestion property does not exist on the member type so a default value is returned. Ensure that you have a property type with alias: umbracoMemberPasswordRetrievalQuestion configured on your member type in order to use the 'PasswordQuestion' property on the model correctly.
 2017-06-15 12:21:01,936 [P7224/D2/T36] WARN  Umbraco.Core.Models.Member - Trying to access the 'PasswordQuestion' property on Umbraco.Core.Models.Member but the umbracoMemberPasswordRetrievalQuestion property does not exist on the member type so a default value is returned. Ensure that you have a property type with alias: umbracoMemberPasswordRetrievalQuestion configured on your member type in order to use the 'PasswordQuestion' property on the model correctly.
 2017-06-15 12:22:04,763 [P7224/D2/T34] INFO  Umbraco.Core.Publishing.PublishingStrategy - Content 'AICPA Global' with Id '1100' has been published.
 2017-06-15 12:22:08,892 [P7224/D2/T13] INFO  umbraco.content - Save Xml to file...
 2017-06-15 12:22:08,900 [P7224/D2/T13] INFO  umbraco.content - Saved Xml to file.
 2017-06-15 12:42:18,344 [P7224/D2/T38] WARN  Umbraco.Web.Models.Mapping.PreValueDisplayResolver - Could not find persisted pre-value for field values
 2017-06-15 12:42:18,350 [P7224/D2/T21] WARN  Umbraco.Web.Models.Mapping.PreValueDisplayResolver - Could not find persisted pre-value for field values
 2017-06-15 12:42:18,350 [P7224/D2/T16] WARN  Umbraco.Web.Models.Mapping.PreValueDisplayResolver - Could not find persisted pre-value for field values
 2017-06-15 12:42:18,356 [P7224/D2/T36] WARN  Umbraco.Web.Models.Mapping.PreValueDisplayResolver - Could not find persisted pre-value for field default
 2017-06-15 12:42:18,363 [P7224/D2/T38] WARN  Umbraco.Web.Models.Mapping.PreValueDisplayResolver - Could not find persisted pre-value for field default
 2017-06-15 12:42:18,386 [P7224/D2/T23] WARN  Umbraco.Web.Models.Mapping.PreValueDisplayResolver - Could not find persisted pre-value for field values
 2017-06-15 12:45:07,325 [P7224/D2/T16] INFO  Umbraco.Core.PluginManager - Starting resolution types of Umbraco.Web.Trees.TreeController
 2017-06-15 12:45:07,325 [P7224/D2/T16] INFO  Umbraco.Core.PluginManager - Completed resolution of types of Umbraco.Web.Trees.TreeController, found 0 (took 0ms)
 2017-06-15 12:45:26,793 [P7224/D2/T16] WARN  Umbraco.Web.UmbracoModule - Status code is 404 yet TrySkipIisCustomErrors is false - IIS will take over.
 2017-06-15 12:49:28,976 [P7224/D2/T10] INFO  Umbraco.Core.Security.UmbracoMembershipProviderBase - Login attempt failed for username Testing from IP address ::1, the user does not exist
 2017-06-15 12:49:28,977 [P7224/D2/T10] INFO  Umbraco.Web.Mvc.UmbracoPageResult - Executing Umbraco RouteDefinition controller
 2017-06-15 12:49:28,981 [P7224/D2/T10] INFO  Umbraco.Web.Mvc.UmbracoPageResult - Finished (took 4ms)
 2017-06-15 12:49:33,879 [P7224/D2/T38] INFO  Umbraco.Core.Security.UmbracoMembershipProviderBase - Login attempt failed for username test from IP address ::1, the user does not exist
 2017-06-15 12:49:33,879 [P7224/D2/T38] INFO  Umbraco.Web.Mvc.UmbracoPageResult - Executing Umbraco RouteDefinition controller
 2017-06-15 12:49:33,882 [P7224/D2/T38] INFO  Umbraco.Web.Mvc.UmbracoPageResult - Finished (took 2ms)
 2017-06-15 12:50:05,206 [P7224/D2/T28] INFO  Umbraco.Core.Security.UmbracoMembershipProviderBase - Login attempt succeeded for username testin@test.com from IP address ::1
 2017-06-15 12:50:05,255 [P7224/D2/T28] WARN  Umbraco.Core.Models.Member - Trying to access the 'PasswordQuestion' property on Umbraco.Core.Models.Member but the umbracoMemberPasswordRetrievalQuestion property does not exist on the member type so a default value is returned. Ensure that you have a property type with alias: umbracoMemberPasswordRetrievalQuestion configured on your member type in order to use the 'PasswordQuestion' property on the model correctly.
 2017-06-15 13:01:38,160 [P7224/D2/T7] INFO  Umbraco.Core.Logging.OwinLogger - Event Id: 0, state: User logged will be logged out due to timeout: harinder.dulai@aicpa-cima.com, IP Address: ::1
 2017-06-15 14:34:04,914 [P7224/D2/T22] INFO  Umbraco.Core.Security.UmbracoMembershipProviderBase - Login attempt succeeded for username testin@test.com from IP address ::1
 2017-06-15 14:34:04,969 [P7224/D2/T22] WARN  Umbraco.Core.Models.Member - Trying to access the 'PasswordQuestion' property on Umbraco.Core.Models.Member but the umbracoMemberPasswordRetrievalQuestion property does not exist on the member type so a default value is returned. Ensure that you have a property type with alias: umbracoMemberPasswordRetrievalQuestion configured on your member type in order to use the 'PasswordQuestion' property on the model correctly.
 2017-06-15 14:44:44,075 [P7224/D2/T38] WARN  umbraco.macro - Error loading partial view macro (View: ~/Views/MacroPartials/LoginStatus.cshtml). Exception: System.Web.HttpParseException (0x80004005): Encountered end tag "li" with no matching start tag.  Are your start/end tags properly balanced?

   at System.Web.WebPages.Razor.RazorBuildProvider.EnsureGeneratedCode()
   at System.Web.WebPages.Razor.RazorBuildProvider.get_CodeCompilerType()
   at System.Web.Compilation.BuildProvider.GetCompilerTypeFromBuildProvider(BuildProvider buildProvider)
   at System.Web.Compilation.BuildProvidersCompiler.ProcessBuildProviders()
   at System.Web.Compilation.BuildProvidersCompiler.PerformBuild()
   at System.Web.Compilation.BuildManager.CompileWebFile(VirtualPath virtualPath)
   at System.Web.Compilation.BuildManager.GetVPathBuildResultInternal(VirtualPath virtualPath, Boolean noBuild, Boolean allowCrossApp, Boolean allowBuildInPrecompile, Boolean throwIfNotFound, Boolean ensureIsUpToDate)
   at System.Web.Compilation.BuildManager.GetVPathBuildResultWithNoAssert(HttpContext context, VirtualPath virtualPath, Boolean noBuild, Boolean allowCrossApp, Boolean allowBuildInPrecompile, Boolean throwIfNotFound, Boolean ensureIsUpToDate)
   at System.Web.Compilation.BuildManager.GetVirtualPathObjectFactory(VirtualPath virtualPath, HttpContext context, Boolean allowCrossApp, Boolean throwIfNotFound)
   at System.Web.Compilation.BuildManager.GetCompiledType(VirtualPath virtualPath)
   at System.Web.Compilation.BuildManager.GetCompiledType(String virtualPath)
   at System.Web.Mvc.BuildManagerWrapper.System.Web.Mvc.IBuildManager.GetCompiledType(String virtualPath)
   at System.Web.Mvc.BuildManagerCompiledView.Render(ViewContext viewContext, TextWriter writer)
   at Umbraco.Core.Profiling.ProfilingView.Render(ViewContext viewContext, TextWriter writer)
   at Umbraco.Web.Mvc.ControllerExtensions.RenderViewResultAsString(ControllerBase controller, ViewResultBase viewResult)
   at Umbraco.Web.Macros.PartialViewMacroEngine.Execute(MacroModel macro, IPublishedContent content)
   at Umbraco.Web.Macros.PartialViewMacroEngine.Execute(MacroModel macro, INode node)
   at umbraco.macro.LoadPartialViewMacro(MacroModel macro)
   at umbraco.macro.renderMacro(Hashtable pageElements, Int32 pageId)
 2017-06-15 14:44:44,081 [P7224/D2/T38] WARN  umbraco.macro - Error loading Partial View (file: ~/Views/MacroPartials/LoginStatus.cshtml). Exception: System.Web.HttpParseException (0x80004005): Encountered end tag "li" with no matching start tag.  Are your start/end tags properly balanced?

   at System.Web.WebPages.Razor.RazorBuildProvider.EnsureGeneratedCode()
   at System.Web.WebPages.Razor.RazorBuildProvider.get_CodeCompilerType()
   at System.Web.Compilation.BuildProvider.GetCompilerTypeFromBuildProvider(BuildProvider buildProvider)
   at System.Web.Compilation.BuildProvidersCompiler.ProcessBuildProviders()
   at System.Web.Compilation.BuildProvidersCompiler.PerformBuild()
   at System.Web.Compilation.BuildManager.CompileWebFile(VirtualPath virtualPath)
   at System.Web.Compilation.BuildManager.GetVPathBuildResultInternal(VirtualPath virtualPath, Boolean noBuild, Boolean allowCrossApp, Boolean allowBuildInPrecompile, Boolean throwIfNotFound, Boolean ensureIsUpToDate)
   at System.Web.Compilation.BuildManager.GetVPathBuildResultWithNoAssert(HttpContext context, VirtualPath virtualPath, Boolean noBuild, Boolean allowCrossApp, Boolean allowBuildInPrecompile, Boolean throwIfNotFound, Boolean ensureIsUpToDate)
   at System.Web.Compilation.BuildManager.GetVirtualPathObjectFactory(VirtualPath virtualPath, HttpContext context, Boolean allowCrossApp, Boolean throwIfNotFound)
   at System.Web.Compilation.BuildManager.GetCompiledType(VirtualPath virtualPath)
   at System.Web.Compilation.BuildManager.GetCompiledType(String virtualPath)
   at System.Web.Mvc.BuildManagerWrapper.System.Web.Mvc.IBuildManager.GetCompiledType(String virtualPath)
   at System.Web.Mvc.BuildManagerCompiledView.Render(ViewContext viewContext, TextWriter writer)
   at Umbraco.Core.Profiling.ProfilingView.Render(ViewContext viewContext, TextWriter writer)
   at Umbraco.Web.Mvc.ControllerExtensions.RenderViewResultAsString(ControllerBase controller, ViewResultBase viewResult)
   at Umbraco.Web.Macros.PartialViewMacroEngine.Execute(MacroModel macro, IPublishedContent content)
   at Umbraco.Web.Macros.PartialViewMacroEngine.Execute(MacroModel macro, INode node)
   at umbraco.macro.LoadPartialViewMacro(MacroModel macro)
   at umbraco.macro.renderMacro(Hashtable pageElements, Int32 pageId)
 2017-06-15 14:44:44,091 [P7224/D2/T38] ERROR Umbraco.Core.UmbracoApplicationBase - An unhandled exception occurred
System.Web.HttpParseException (0x80004005): Encountered end tag "li" with no matching start tag.  Are your start/end tags properly balanced?

   at System.Web.WebPages.Razor.RazorBuildProvider.EnsureGeneratedCode()
   at System.Web.WebPages.Razor.RazorBuildProvider.get_CodeCompilerType()
   at System.Web.Compilation.BuildProvider.GetCompilerTypeFromBuildProvider(BuildProvider buildProvider)
   at System.Web.Compilation.BuildProvidersCompiler.ProcessBuildProviders()
   at System.Web.Compilation.BuildProvidersCompiler.PerformBuild()
   at System.Web.Compilation.BuildManager.CompileWebFile(VirtualPath virtualPath)
   at System.Web.Compilation.BuildManager.GetVPathBuildResultInternal(VirtualPath virtualPath, Boolean noBuild, Boolean allowCrossApp, Boolean allowBuildInPrecompile, Boolean throwIfNotFound, Boolean ensureIsUpToDate)
   at System.Web.Compilation.BuildManager.GetVPathBuildResultWithNoAssert(HttpContext context, VirtualPath virtualPath, Boolean noBuild, Boolean allowCrossApp, Boolean allowBuildInPrecompile, Boolean throwIfNotFound, Boolean ensureIsUpToDate)
   at System.Web.Compilation.BuildManager.GetVirtualPathObjectFactory(VirtualPath virtualPath, HttpContext context, Boolean allowCrossApp, Boolean throwIfNotFound)
   at System.Web.Compilation.BuildManager.GetCompiledType(VirtualPath virtualPath)
   at System.Web.Compilation.BuildManager.GetCompiledType(String virtualPath)
   at System.Web.Mvc.BuildManagerWrapper.System.Web.Mvc.IBuildManager.GetCompiledType(String virtualPath)
   at System.Web.Mvc.BuildManagerCompiledView.Render(ViewContext viewContext, TextWriter writer)
   at Umbraco.Core.Profiling.ProfilingView.Render(ViewContext viewContext, TextWriter writer)
   at Umbraco.Web.Mvc.ControllerExtensions.RenderViewResultAsString(ControllerBase controller, ViewResultBase viewResult)
   at Umbraco.Web.Macros.PartialViewMacroEngine.Execute(MacroModel macro, IPublishedContent content)
   at Umbraco.Web.Macros.PartialViewMacroEngine.Execute(MacroModel macro, INode node)
   at umbraco.macro.LoadPartialViewMacro(MacroModel macro)
   at umbraco.macro.renderMacro(Hashtable pageElements, Int32 pageId)
   at Umbraco.Web.UmbracoComponentRenderer.RenderMacro(macro m, IDictionary`2 parameters, page umbracoPage)
   at Umbraco.Web.UmbracoComponentRenderer.RenderMacro(String alias, IDictionary`2 parameters, page umbracoPage)
   at Umbraco.Web.UmbracoComponentRenderer.RenderMacro(String alias, IDictionary`2 parameters)
   at Umbraco.Web.UmbracoComponentRenderer.RenderMacro(String alias, Object parameters)
   at Umbraco.Web.UmbracoHelper.RenderMacro(String alias)
   at ASP._Page_Views_Master_cshtml.Execute() in c:\Users\hdulai\Documents\webmanagementportal\Web Management\Views\Master.cshtml:line 43
   at System.Web.WebPages.WebPageBase.ExecutePageHierarchy()
   at System.Web.Mvc.WebViewPage.ExecutePageHierarchy()
   at System.Web.WebPages.WebPageBase.ExecutePageHierarchy(WebPageContext pageContext, TextWriter writer, WebPageRenderingBase startPage)
   at System.Web.WebPages.WebPageBase.<>c__DisplayClass3.<RenderPageCore>b__2(TextWriter writer)
   at System.Web.WebPages.HelperResult.WriteTo(TextWriter writer)
   at System.Web.WebPages.WebPageBase.Write(HelperResult result)
   at System.Web.WebPages.WebPageBase.RenderSurrounding(String partialViewName, Action`1 body)
   at System.Web.WebPages.WebPageBase.PopContext()
   at System.Web.WebPages.WebPageBase.ExecutePageHierarchy(WebPageContext pageContext, TextWriter writer, WebPageRenderingBase startPage)
   at System.Web.Mvc.RazorView.RenderView(ViewContext viewContext, TextWriter writer, Object instance)
   at System.Web.Mvc.BuildManagerCompiledView.Render(ViewContext viewContext, TextWriter writer)
   at Umbraco.Core.Profiling.ProfilingView.Render(ViewContext viewContext, TextWriter writer)
   at System.Web.Mvc.ViewResultBase.ExecuteResult(ControllerContext context)
   at System.Web.Mvc.ControllerActionInvoker.InvokeActionResult(ControllerContext controllerContext, ActionResult actionResult)
   at System.Web.Mvc.ControllerActionInvoker.InvokeActionResultFilterRecursive(IList`1 filters, Int32 filterIndex, ResultExecutingContext preContext, ControllerContext controllerContext, ActionResult actionResult)
   at System.Web.Mvc.ControllerActionInvoker.InvokeActionResultFilterRecursive(IList`1 filters, Int32 filterIndex, ResultExecutingContext preContext, ControllerContext controllerContext, ActionResult actionResult)
   at System.Web.Mvc.ControllerActionInvoker.InvokeActionResultFilterRecursive(IList`1 filters, Int32 filterIndex, ResultExecutingContext preContext, ControllerContext controllerContext, ActionResult actionResult)
   at System.Web.Mvc.ControllerActionInvoker.InvokeActionResultFilterRecursive(IList`1 filters, Int32 filterIndex, ResultExecutingContext preContext, ControllerContext controllerContext, ActionResult actionResult)
   at System.Web.Mvc.ControllerActionInvoker.InvokeActionResultWithFilters(ControllerContext controllerContext, IList`1 filters, ActionResult actionResult)
   at System.Web.Mvc.Async.AsyncControllerActionInvoker.<>c__DisplayClass21.<>c__DisplayClass2b.<BeginInvokeAction>b__1c()
   at System.Web.Mvc.Async.AsyncControllerActionInvoker.<>c__DisplayClass21.<BeginInvokeAction>b__1e(IAsyncResult asyncResult)
   at System.Web.Mvc.Async.AsyncResultWrapper.WrappedAsyncResult`1.CallEndDelegate(IAsyncResult asyncResult)
   at System.Web.Mvc.Async.AsyncResultWrapper.WrappedAsyncResultBase`1.End()
   at System.Web.Mvc.Async.AsyncControllerActionInvoker.EndInvokeAction(IAsyncResult asyncResult)
   at System.Web.Mvc.Controller.<BeginExecuteCore>b__1d(IAsyncResult asyncResult, ExecuteCoreState innerState)
   at System.Web.Mvc.Async.AsyncResultWrapper.WrappedAsyncVoid`1.CallEndDelegate(IAsyncResult asyncResult)
   at System.Web.Mvc.Async.AsyncResultWrapper.WrappedAsyncResultBase`1.End()
   at System.Web.Mvc.Controller.EndExecuteCore(IAsyncResult asyncResult)
   at System.Web.Mvc.Controller.<BeginExecute>b__15(IAsyncResult asyncResult, Controller controller)
   at System.Web.Mvc.Async.AsyncResultWrapper.WrappedAsyncVoid`1.CallEndDelegate(IAsyncResult asyncResult)
   at System.Web.Mvc.Async.AsyncResultWrapper.WrappedAsyncResultBase`1.End()
   at System.Web.Mvc.Controller.EndExecute(IAsyncResult asyncResult)
   at System.Web.Mvc.Controller.System.Web.Mvc.Async.IAsyncController.EndExecute(IAsyncResult asyncResult)
   at System.Web.Mvc.MvcHandler.<BeginProcessRequest>b__5(IAsyncResult asyncResult, ProcessRequestState innerState)
   at System.Web.Mvc.Async.AsyncResultWrapper.WrappedAsyncVoid`1.CallEndDelegate(IAsyncResult asyncResult)
   at System.Web.Mvc.Async.AsyncResultWrapper.WrappedAsyncResultBase`1.End()
   at System.Web.Mvc.MvcHandler.EndProcessRequest(IAsyncResult asyncResult)
   at System.Web.Mvc.MvcHandler.System.Web.IHttpAsyncHandler.EndProcessRequest(IAsyncResult result)
   at System.Web.HttpApplication.CallHandlerExecutionStep.System.Web.HttpApplication.IExecutionStep.Execute()
   at System.Web.HttpApplication.ExecuteStep(IExecutionStep step, Boolean& completedSynchronously)
